term	chisquare
consegu	146.1654546219
uniform	95.9172234789
visit	4282.542962826
camarer	6585.1645296639
segur	115.7125893462
grad	325.5684158147
profesion	438.5449574152
escol	111.6481785988
guarderi	266.9483294425
turism	242.3299306566
ser	390.2887084387
titulacion	207.9351533319
clas	117.4829814903
necesari	114.8596663689
soldadur	114.1178034135
medi	179.5634836711
obten	243.0232124401
agor	248.4726112799
formacionuniversitari	197.8719756314
cors	185.8750144683
emple	3253.0432509231
carnet	1583.047360068
gradu	309.6710719922
busc	294.6482310007
coruñ	81.8646656464
cursos	209.8695461253
lin	149.7792036881
undefin	101.9133436898
curso	77.9297762277
veran	130.8373527255
cours	130.2390906217
campustraining	113.9060408369
profesor	107.9322245685
salari	111.330280999
curos	89.9212555022
experient	341.3618907719
limpiez	126.4188764522
crsos	89.9212555022
illes	120.5943220577
requisit	150.5312240371
cur	338.4328478626
estudi	3595.9332925727
jardiner	165.7120457035
funcion	95.2627582479
academi	454.1103695131
gas	384.1463671131
auxili	136.4112364101
secundari	540.7737600014
balears	121.9657004828
pis	10879.7856507536
presencial	126.7504616427
electric	151.839268547
automocion	103.1055743478
practic	129.819082247
necesit	146.9815071805
hosteleri	170.0871892157
sac	641.7749767181
hotel	300.7208735774
campus	980.6646905665
ofert	3480.0335058029
cuers	107.9096161405
infantil	253.7489515263
cicl	103.7120171259
exita	385.0181687667
homolog	150.1109536255
medic	3980.7074498276
onlin	886.3724005149
educacion	221.4433330736
training	350.1726625577
formacion	236.5633180684
centr	264.5032861759
titul	2244.997652145
microsoft	82.4134995322
cues	155.8852770782
fp	3060.820192408
astur	97.3808482057
vigil	130.4218856814
trabaj	5150.8579791572
curss	95.9172234789
transport	99.9784677131
cursis	119.9026177848
murci	88.5660075307
cursosd	119.9026177848
crus	112.2970964085
profesional	367.4147641309
implik	502.0119369414
autoescuel	115.8092331401
examen	105.7177607587
instal	731.1678326917
modul	406.5608083087
cursus	197.8719756314
sueld	181.239471238
escuel	794.2755623795
universitari	301.1492729641
superior	97.5763896589
cursosonlin	142.2074089196
depis	81.7426359003
cus	766.5094426794
cursill	7003.4194666016
corredor	98.0673678131
